{
  "uuid": "arcmenu@arcmenu.com",
  "settings-schema": "org.gnome.shell.extensions.arcmenu",
  "gettext-domain": "arcmenu",
  "name": "ArcMenu",
  "description": "Application Menu Extension for GNOME",
  "version": 51,
  "shell-version": [ "45" ],
  "url": "https://gitlab.com/arcmenu/ArcMenu",
  "donations": {
      "paypal": "azaech"
  }
}
